WHKYE Age Curves
…
  avg <- inla.emarginal(mean,preds)
  std1 <- inla.emarginal(sd,preds)
  
  std2 <- sd(sampling)
  
  data.frame(points = sampling, age = xx[i], position = "Defense", avg = avg, std = std1, std2 = std2)

}

Now plot those posterior predictive means

library(ggplot2)
forward_dt %>% group_by(age,position,avg,std)

## # A tibble: 641 x 6
## # Groups:   age, position, avg, std [641]
##    points   age position   avg   std  std2
##     <dbl> <dbl> <chr>    <dbl> <dbl> <dbl>
##  1 0.1     18   Forward   5.19 0.520    NA
##  2 0.2     18.0 Forward   5.22 0.520    NA
##  3 0.4     18.0 Forward   5.25 0.521    NA
##  4 0.2     18.1 Forward   5.27 0.522    NA
##  5 0.167   18.1 Forward   5.30 0.523    NA
##  6 0.167   18.1 Forward   5.33 0.524    NA
##  7 0.0333  18.2 Forward   5.36 0.525    NA
##  8 0.3     18.2 Forward   5.38 0.526    NA
##  9 0.267   18.2 Forward   5.41 0.528    NA
## 10 0.133   18.2 Forward   5.44 0.529    NA
## # ... with 631 more rows
…
